<svg width="118" height="133" viewBox="0 0 118 133" fill="none" xmlns="http://www.w3.org/2000/svg">
<path d="M5.17862 8.93164L11.6197 14.5605L21.1524 5.34961L29.6546 12.7695L39.9603 3.81445L49.493 13.5371L56.707 3.55859L67.0127 12.5137L73.7114 3.81445L84.5324 12.5137L93.2922 5.34961L93.8075 119.207L99.4756 129.697L10.5891 129.441L2.6022 123.301L2.08691 6.62891L5.17862 8.93164Z" fill="white"/>
<path d="M115.424 63.9428H96.3588V3.55998C96.3588 2.53655 95.7405 1.58987 94.7615 1.20608C93.8082 0.82229 92.7003 1.02698 91.9532 1.76897L84.6619 9.00979L77.3706 1.74338C76.3401 0.745532 74.7169 0.745532 73.7121 1.74338L66.4209 8.9842L59.1296 1.74338C58.1248 0.745532 56.5016 0.745532 55.4968 1.74338L48.1798 9.00979L40.8885 1.74338C39.8837 0.745532 38.2606 0.745532 37.2558 1.74338L29.9645 8.9842L22.6475 1.74338C21.6427 0.745532 19.9938 0.745532 18.989 1.74338L11.6977 9.00979L4.40646 1.74338C3.40165 0.745532 1.77851 0.745532 0.773706 1.74338C0.232658 2.2551 -0.0249841 2.94592 0.000780087 3.63674V118.697C0.000780087 126.04 6.00384 132.001 13.3982 132.001H104.603C111.998 132.001 118.001 126.04 118.001 118.697V66.5014C118.001 65.0942 116.841 63.9428 115.424 63.9428ZM13.3982 126.884C8.86366 126.884 5.15362 123.2 5.15362 118.697V9.75178L9.86846 14.434C10.8733 15.4319 12.4964 15.4319 13.5012 14.434L20.7925 7.19319L28.0837 14.434C29.0885 15.4319 30.7117 15.4319 31.7165 14.434L39.0078 7.19319L46.299 14.434C47.3038 15.4319 48.927 15.4319 49.9318 14.434L57.223 7.19319L64.5143 14.434C65.5191 15.4319 67.1423 15.4319 68.1471 14.434L75.4383 7.19319L82.7296 14.434C83.7344 15.4319 85.3575 15.4319 86.3623 14.434L91.206 9.7262V66.5014C91.206 66.527 91.206 66.5526 91.206 66.5781V118.697C91.206 121.793 92.2623 124.633 94.0658 126.884H13.3982ZM112.848 118.697C112.848 123.2 109.138 126.884 104.603 126.884C100.069 126.884 96.3588 123.2 96.3588 118.697V69.06H112.848V118.697Z" fill="#E6E6E6"/>
<path d="M48.18 41.6561C45.6294 41.6561 43.5425 39.8906 43.5425 37.7158C43.5425 35.541 45.6294 33.7756 48.18 33.7756C50.7307 33.7756 52.8176 35.541 52.8176 37.7158C52.8176 39.123 53.977 40.2744 55.394 40.2744C56.811 40.2744 57.9704 39.123 57.9704 37.7158C57.9704 33.5453 54.9303 30.0145 50.7822 28.9654V27.2256C50.7822 25.8184 49.6228 24.667 48.2058 24.667C46.7888 24.667 45.6294 25.8184 45.6294 27.2256V28.9654C41.4814 30.0145 38.4154 33.5197 38.4154 37.6902C38.4154 42.6795 42.7953 46.7477 48.18 46.7732C50.7307 46.7732 52.8176 48.5387 52.8176 50.7135C52.8176 52.8883 50.7307 54.6537 48.18 54.6537C45.6294 54.6537 43.5425 52.8883 43.5425 50.7135C43.5425 49.3062 42.3831 48.1549 40.9661 48.1549C39.549 48.1549 38.3896 49.3062 38.3896 50.7135C38.3896 54.884 41.4298 58.4148 45.5779 59.4639V61.5619C45.5779 62.9691 46.7372 64.1205 48.1543 64.1205C49.5713 64.1205 50.7307 62.9691 50.7307 61.5619V59.4639C54.8787 58.4148 57.9447 54.9096 57.9447 50.7391C57.9704 45.7242 53.5905 41.6561 48.18 41.6561Z" fill="#FFD78F"/>
<path d="M74.0721 41.6561H69.0481C67.6311 41.6561 66.4717 42.8075 66.4717 44.2147C66.4717 45.622 67.6311 46.7733 69.0481 46.7733H74.0721C75.4892 46.7733 76.6485 45.622 76.6485 44.2147C76.6485 42.8075 75.4892 41.6561 74.0721 41.6561Z" fill="#FFD78F"/>
<path d="M27.3104 41.6561H22.2864C20.8693 41.6561 19.71 42.8075 19.71 44.2147C19.71 45.622 20.8693 46.7733 22.2864 46.7733H27.3104C28.7274 46.7733 29.8868 45.622 29.8868 44.2147C29.8868 42.8075 28.7274 41.6561 27.3104 41.6561Z" fill="#FFD78F"/>
<path d="M75.3605 70.082H34.5501C33.133 70.082 31.9736 71.2334 31.9736 72.6406C31.9736 74.0479 33.133 75.1992 34.5501 75.1992H75.3605C76.7775 75.1992 77.9369 74.0479 77.9369 72.6406C77.9369 71.2334 76.7775 70.082 75.3605 70.082Z" fill="#B3B3B3"/>
<path d="M22.8012 70.824C22.3117 70.3379 21.6676 70.082 20.9719 70.082C20.2763 70.082 19.6322 70.3635 19.1427 70.824C18.6532 71.2846 18.3955 71.9498 18.3955 72.6406C18.3955 73.3314 18.6789 73.9711 19.1427 74.4572C19.6322 74.9434 20.2763 75.1992 20.9719 75.1992C21.6676 75.1992 22.3117 74.9178 22.8012 74.4572C23.2907 73.9967 23.5484 73.3314 23.5484 72.6406C23.5484 71.9498 23.2907 71.3102 22.8012 70.824Z" fill="#B3B3B3"/>
<path d="M75.3605 86.9688H34.5501C33.133 86.9688 31.9736 88.1201 31.9736 89.5273C31.9736 90.9346 33.133 92.0859 34.5501 92.0859H75.3605C76.7775 92.0859 77.9369 90.9346 77.9369 89.5273C77.9369 88.1201 76.7775 86.9688 75.3605 86.9688Z" fill="#B3B3B3"/>
<path d="M22.8012 87.7107C22.3117 87.2246 21.6676 86.9688 20.9719 86.9688C20.2763 86.9688 19.6322 87.2502 19.1427 87.7107C18.6532 88.1713 18.3955 88.8365 18.3955 89.5273C18.3955 90.2182 18.6789 90.8578 19.1427 91.3439C19.6322 91.8301 20.2763 92.0859 20.9719 92.0859C21.6676 92.0859 22.3117 91.8045 22.8012 91.3439C23.2907 90.8834 23.5484 90.2182 23.5484 89.5273C23.5484 88.8365 23.2907 88.1969 22.8012 87.7107Z" fill="#B3B3B3"/>
<path d="M75.3605 103.855H34.5501C33.133 103.855 31.9736 105.007 31.9736 106.414C31.9736 107.821 33.133 108.973 34.5501 108.973H75.3605C76.7775 108.973 77.9369 107.821 77.9369 106.414C77.9369 105.007 76.7775 103.855 75.3605 103.855Z" fill="#B3B3B3"/>
<path d="M22.8012 104.597C22.3117 104.111 21.6676 103.855 20.9719 103.855C20.2763 103.855 19.6322 104.137 19.1427 104.597C18.6532 105.058 18.3955 105.723 18.3955 106.414C18.3955 107.105 18.6789 107.745 19.1427 108.231C19.6322 108.717 20.2763 108.973 20.9719 108.973C21.6676 108.973 22.3117 108.691 22.8012 108.231C23.2907 107.77 23.5484 107.105 23.5484 106.414C23.5484 105.723 23.2907 105.084 22.8012 104.597Z" fill="#B3B3B3"/>
<path d="M112.847 118.695C112.847 123.198 109.137 126.883 104.603 126.883C100.068 126.883 96.3584 123.198 96.3584 118.695V69.0586H112.847V118.695Z" fill="#B3B3B3"/>
</svg>
