<?xml version="1.0" encoding="utf-8"?>
<!-- Generator: Adobe Illustrator 21.0.2, SVG Export Plug-In . SVG Version: 6.00 Build 0)  -->
<svg version="1.1" id="Capa_1" xmlns="http://www.w3.org/2000/svg" xmlns:xlink="http://www.w3.org/1999/xlink" x="0px" y="0px"
	 viewBox="0 0 240 255" style="enable-background:new 0 0 240 255;" xml:space="preserve">
<style type="text/css">
	.st0{fill:#FFFFFF;}
	.st1{fill:#E7E7E7;}
	.st2{fill:#4D4D4D;}
	.st3{fill:#79C4CC;}
	.st4{fill:#E6AE48;}
</style>
<path class="st0" d="M90.4,173.5l6.1,5l12.4,2.7h8h6.2h9.8h8.5l12-10.2l10.4-1.5l6.7-7.9l5.3-12.5l10.8-9.5v-19.3l5-15l-10.8-21.3
	l-3.7-14.2L163.9,61l-6.6-9.2l-11.8-5.4h-6.7l-16.4-5.8l-10.4,2.1l-8.7,2.9l-10.8,1.7l-8.7,3.3l-5,8.8L65,67.8l-6.6,12.8l-5,13.1
	l-4.2,14.1l5,14.6l-1.7,12.5l19.1,28l10.8,6.7L90.4,173.5z"/>
<path class="st1" d="M61.4,220l17.5-47h10.5l16,9.5l14,1.5l-24.5,49.5L85.4,213L61.4,220z"/>
<path class="st1" d="M145.9,236.5l-26-52l17-5.5l9-3l12.5-7l21.5,51.5l-26-7.5L145.9,236.5z"/>
<path class="st2" d="M95.7,241c-1.3,0-2.5-0.8-3.1-2l-9.9-22.6l-22.9,9.1c-0.4,0.2-0.8,0.2-1.2,0.2c-0.9,0-1.7-0.4-2.4-1
	c-1-1-1.2-2.4-0.7-3.7l20.1-49.2l-1.1-0.6c-4.3-2.3-7.6-6.1-9.3-10.7l-1.8-4.7c-0.8-2-2-3.9-3.7-5.3l-3.7-3.3
	c-5-4.4-7.5-11.1-6.7-17.7l0.6-5c0.2-2.2,0-4.4-0.8-6.5l-1.8-4.7c-2.4-6.3-1.5-13.3,2.3-18.8l2.9-4.1c1.2-1.8,2-3.9,2.3-6.1l0.6-5
	c0.7-6.6,4.7-12.4,10.6-15.5l4.4-2.3c1.9-1,3.6-2.5,4.9-4.3l2.9-4.1c3.8-5.5,10-8.8,16.7-8.8h5c2.2,0,4.4-0.5,6.3-1.5l4.4-2.3
	c2.9-1.5,6.2-2.3,9.4-2.3c3.3,0,6.5,0.8,9.4,2.3l4.4,2.3c1.9,1,4.1,1.5,6.3,1.5h5c6.6,0,12.9,3.3,16.7,8.8l2.9,4.1
	c1.2,1.8,2.9,3.3,4.9,4.3l4.4,2.3c5.9,3.1,9.9,8.9,10.7,15.6l0.6,5c0.2,2.2,1,4.3,2.3,6.1l2.9,4.1c3.8,5.5,4.6,12.5,2.3,18.8
	l-1.8,4.7c-0.8,2-1,4.3-0.8,6.5l0.6,5c0.8,6.6-1.7,13.3-6.7,17.7l-3.7,3.3c-1.6,1.5-2.9,3.3-3.7,5.3l-1.8,4.7
	c-1.7,4.6-5.1,8.4-9.3,10.7l-1.1,0.6l20.1,49.2c0.5,1.3,0.2,2.7-0.7,3.7c-0.6,0.6-1.5,1-2.4,1c-0.4,0-0.8-0.1-1.2-0.3l-22.9-9.1
	l-9.9,22.6c-0.5,1.2-1.7,2-3.1,2h-0.1c-1.3,0-2.5-0.8-3.1-2.1l-21.1-51.7L99,239c-0.5,1.3-1.7,2.1-3.1,2.1L95.7,241L95.7,241z
	 M144.3,228.9l8-18.3c0.5-1.2,1.7-2,3.1-2c0.4,0,0.8,0.1,1.2,0.2l18.5,7.3l-17.3-42.4l-2,0.5c-2.1,0.5-4.1,1.6-5.7,3l-3.7,3.3
	c-3.7,3.3-8.5,5.1-13.4,5.1c-1.4,0-2.7-0.1-4.1-0.4l-2.5-0.5L144.3,228.9z M84.5,208.7c1.3,0,2.5,0.8,3.1,2l8,18.3l18-44.1l-2.5,0.5
	c-1.4,0.3-2.7,0.4-4.1,0.4c-4.9,0-9.7-1.8-13.4-5.1l-3.7-3.3c-1.6-1.5-3.6-2.5-5.7-3l-2-0.5l-17.3,42.4l18.5-7.3
	C83.6,208.7,84,208.7,84.5,208.7z M94.8,51c-4.4,0-8.6,2.2-11.1,5.9L80.8,61c-1.8,2.7-4.4,4.9-7.2,6.4l-4.4,2.3
	c-3.9,2.1-6.6,6-7.1,10.4l-0.6,5c-0.4,3.3-1.6,6.4-3.4,9.1L55,98.4c-2.5,3.7-3.1,8.3-1.5,12.5l1.8,4.7c1.2,3.1,1.6,6.4,1.2,9.7
	l-0.6,5c-0.5,4.4,1.1,8.8,4.4,11.8l3.7,3.3c2.5,2.2,4.4,5,5.5,8l1.8,4.7c1.6,4.2,5.1,7.3,9.4,8.4l4.9,1.2c3.2,0.8,6.1,2.3,8.6,4.5
	l3.7,3.3c2.5,2.2,5.7,3.4,9,3.4c1.1,0,2.2-0.1,3.2-0.4l4.9-1.2c1.6-0.4,3.2-0.6,4.9-0.6c1.6,0,3.3,0.2,4.9,0.6l4.9,1.2
	c1,0.3,2.2,0.4,3.2,0.4c3.3,0,6.5-1.2,9-3.4l3.7-3.3c2.5-2.2,5.4-3.8,8.6-4.5l4.9-1.2c4.3-1.1,7.8-4.2,9.4-8.4l1.8-4.7
	c1.2-3.1,3.1-5.8,5.5-8l3.7-3.3c3.3-3,5-7.4,4.4-11.8l-0.6-5c-0.4-3.3,0-6.6,1.2-9.7l1.8-4.7c1.6-4.2,1-8.8-1.5-12.5l-2.9-4.1
	c-1.9-2.7-3-5.8-3.4-9.1l-0.6-5c-0.5-4.4-3.2-8.3-7.1-10.4l-4.4-2.3c-2.9-1.5-5.4-3.8-7.3-6.5l-2.9-4.1c-2.5-3.7-6.7-5.9-11.1-5.9
	h-5c-3.3,0-6.5-0.8-9.4-2.3l-4.3-2.3c-1.9-1-4.1-1.5-6.3-1.5c-2.2,0-4.4,0.5-6.3,1.5l-4.4,2.3c-2.9,1.5-6.2,2.3-9.4,2.3H94.8z"/>
<path class="st2" d="M119.9,162.8c-27.9,0-50.6-22.8-50.6-50.9c0-28,22.7-50.9,50.6-50.9c27.9,0,50.6,22.8,50.6,50.9
	C170.6,139.9,147.9,162.8,119.9,162.8z"/>
<path class="st3" d="M119.9,67.8C95.7,67.8,76,87.6,76,111.9c0,24.3,19.7,44.1,43.9,44.1c24.2,0,43.9-19.8,43.9-44.1
	C163.9,87.6,144.2,67.8,119.9,67.8z"/>
<path class="st2" d="M97.8,137.8c-0.9,0-1.7-0.3-2.4-1c-0.6-0.6-1-1.5-1-2.4v-28.2c0-1,0.5-2.1,1.3-2.7l22.1-16.8
	c0.6-0.5,1.3-0.7,2-0.7s1.5,0.3,2,0.7l22.1,16.8c0.8,0.6,1.3,1.6,1.3,2.7v28.2c0,1.9-1.5,3.4-3.4,3.4H97.8z"/>
<path class="st4" d="M122.8,119.2c0.5,0,0.9,0.4,0.9,0.9V131h15.1v-23.2l-18.8-14.2l-18.8,14.2V131h15.1v-10.8
	c0-0.5,0.4-0.9,0.9-0.9H122.8z"/>
</svg>
