<svg width="130" height="130" viewBox="0 0 130 130" fill="none" xmlns="http://www.w3.org/2000/svg">
<path d="M74.3522 65.8169C86.3391 65.8169 96.0564 56.0996 96.0564 44.1127C96.0564 32.1258 86.3391 22.4084 74.3522 22.4084C62.3653 22.4084 52.6479 32.1258 52.6479 44.1127C52.6479 56.0996 62.3653 65.8169 74.3522 65.8169Z" fill="#FFDE00"/>
<path fill-rule="evenodd" clip-rule="evenodd" d="M74.3522 23.3521C62.8865 23.3521 53.5917 32.6469 53.5917 44.1127C53.5917 55.5784 62.8865 64.8732 74.3522 64.8732C85.818 64.8732 95.1128 55.5784 95.1128 44.1127C95.1128 32.6469 85.818 23.3521 74.3522 23.3521ZM51.7043 44.1127C51.7043 31.6046 61.8441 21.4648 74.3522 21.4648C86.8603 21.4648 97.0001 31.6046 97.0001 44.1127C97.0001 56.6208 86.8603 66.7606 74.3522 66.7606C61.8441 66.7606 51.7043 56.6208 51.7043 44.1127Z" fill="#2E3547"/>
<path fill-rule="evenodd" clip-rule="evenodd" d="M79.0704 99.7887H30.9436V97.9014H79.0704V99.7887Z" fill="#2E3547"/>
<path fill-rule="evenodd" clip-rule="evenodd" d="M68.6902 90.3521H40.3804V88.4648H68.6902V90.3521Z" fill="#2E3547"/>
<path fill-rule="evenodd" clip-rule="evenodd" d="M68.6902 83.7465H40.3804V81.8591H68.6902V83.7465Z" fill="#2E3547"/>
<path fill-rule="evenodd" clip-rule="evenodd" d="M68.6902 77.1409H40.3804V75.2535H68.6902V77.1409Z" fill="#2E3547"/>
<path fill-rule="evenodd" clip-rule="evenodd" d="M37.5064 26.1831C34.3892 26.1831 31.8873 28.676 31.8873 31.7507V105.545C31.8873 108.62 34.3892 111.113 37.5064 111.113H72.5077C75.6249 111.113 78.1268 108.62 78.1268 105.545V75.1592H80.0141V105.545C80.0141 109.676 76.6532 113 72.5077 113H37.5064C33.3609 113 30 109.676 30 105.545V31.7507C30 27.6196 33.3609 24.2958 37.5064 24.2958H50.6319V26.1831H37.5064Z" fill="#2E3547"/>
<path fill-rule="evenodd" clip-rule="evenodd" d="M83.6171 36.1624L73.0009 51.261C72.8399 51.49 72.5856 51.6357 72.3066 51.6587C72.0276 51.6818 71.7529 51.5797 71.5565 51.3803L65.1868 44.9094L66.5318 43.5854L72.1078 49.25L82.0732 35.0769L83.6171 36.1624Z" fill="#2E3547"/>
<path fill-rule="evenodd" clip-rule="evenodd" d="M30.9436 34.676H46.0422V36.5633H30.9436V34.676Z" fill="#2E3547"/>
<path fill-rule="evenodd" clip-rule="evenodd" d="M59.2535 107.338H49.8169V105.451H59.2535V107.338Z" fill="#2E3547"/>
</svg>
