<svg width="130" height="130" viewBox="0 0 130 130" fill="none" xmlns="http://www.w3.org/2000/svg">
<path d="M71.1259 78.572C69.8683 86.5807 63.0591 92.8489 54.6476 93.1326C45.1098 93.4543 37.1282 85.9936 36.8065 76.4557C36.4848 66.9179 43.9455 58.9363 53.4833 58.6146C53.8649 58.6018 54.247 58.607 54.6291 58.6123" fill="#FFDE00"/>
<path fill-rule="evenodd" clip-rule="evenodd" d="M53.5134 59.5043C44.4669 59.8095 37.3912 67.3792 37.6963 76.4257C38.0014 85.4722 45.5712 92.548 54.6177 92.2428C62.5942 91.9738 69.0538 86.0289 70.2465 78.4338C70.3228 77.9481 70.7784 77.6162 71.2641 77.6925C71.7498 77.7688 72.0817 78.2243 72.0054 78.7101C70.6828 87.1325 63.5242 93.7239 54.6777 94.0223C44.6485 94.3606 36.2551 86.515 35.9168 76.4857C35.5786 66.4565 43.4242 58.0632 53.4534 57.7249C53.8565 57.7113 54.2568 57.7168 54.633 57.722L54.6415 57.7222C55.1331 57.729 55.5261 58.133 55.5193 58.6247C55.5125 59.1163 55.1084 59.5093 54.6168 59.5025C54.2312 59.4971 53.8702 59.4923 53.5134 59.5043Z" fill="#2E3547"/>
<path fill-rule="evenodd" clip-rule="evenodd" d="M68.5042 42.6035C70.9361 40.1519 74.8074 39.9187 78.6313 41.187C79.098 41.3418 79.3508 41.8456 79.196 42.3122C79.0413 42.7789 78.5375 43.0317 78.0708 42.8769C74.5517 41.7097 71.5163 42.0941 69.7672 43.8584L69.7645 43.8612L64.9853 48.6403C64.9851 48.6406 64.9848 48.6408 64.9846 48.6411C63.3993 50.2348 62.5978 53.1522 62.9758 56.5109C63.3502 59.8375 64.8726 63.4403 67.7095 66.2686L67.7104 66.2695C70.5933 69.1524 73.9 71.0064 76.8815 71.7036C79.8779 72.4043 82.3996 71.9164 83.9565 70.3595L90.1342 64.1819C90.1346 64.1814 90.135 64.181 90.1355 64.1806C91.8603 62.4392 92.266 59.4977 91.1897 56.0779C91.0421 55.6089 91.3026 55.109 91.7716 54.9614C92.2406 54.8138 92.7404 55.0744 92.888 55.5434C94.0655 59.2847 93.7809 63.032 91.3987 65.4353L91.3959 65.4381L85.2155 71.6185C83.0642 73.7698 79.8145 74.218 76.476 73.4373C73.1227 72.6531 69.5312 70.6081 66.4519 67.529C63.3087 64.395 61.6228 60.4088 61.2065 56.71C60.7939 53.0435 61.6189 49.4992 63.7232 47.3845L63.7248 47.3829L68.5042 42.6035Z" fill="#343A40"/>
<path fill-rule="evenodd" clip-rule="evenodd" d="M91.3594 64.1975C91.7071 64.5451 91.7071 65.1088 91.3594 65.4564C88.6344 68.1815 84.1572 68.1582 79.8778 66.3563C79.4246 66.1655 79.212 65.6435 79.4028 65.1904C79.5936 64.7372 80.1156 64.5246 80.5687 64.7154C84.5783 66.4036 88.1356 66.1622 90.1004 64.1975C90.4481 63.8498 91.0118 63.8498 91.3594 64.1975Z" fill="#343A40"/>
<path fill-rule="evenodd" clip-rule="evenodd" d="M69.7629 42.6006C70.1114 42.9474 70.1128 43.5111 69.766 43.8596C68.2169 45.4163 67.7332 47.9341 68.4361 50.9263C69.1354 53.9034 70.9894 57.2059 73.8726 60.0891C74.2203 60.4368 74.2203 61.0004 73.8726 61.3481C73.525 61.6958 72.9613 61.6958 72.6136 61.3481C69.5345 58.269 67.4894 54.6821 66.7028 51.3335C65.9196 47.9998 66.3629 44.7553 68.5039 42.6037C68.8507 42.2552 69.4144 42.2538 69.7629 42.6006Z" fill="#343A40"/>
<path fill-rule="evenodd" clip-rule="evenodd" d="M94.9923 29.9479C96.9211 30.381 98.9569 31.5313 100.685 33.259C102.412 34.9867 103.563 37.0226 103.996 38.9514C104.426 40.8668 104.167 42.8152 102.848 44.134L102.012 44.9701C100.693 46.2889 98.7444 46.5483 96.829 46.1182C94.9002 45.6851 92.8643 44.5347 91.1366 42.807C89.4089 41.0793 88.2586 39.0434 87.8255 37.1147C87.3954 35.1992 87.6547 33.2508 88.9735 31.932L89.8097 31.0959C91.1284 29.7771 93.0768 29.5178 94.9923 29.9479ZM94.6022 31.6851C93.0367 31.3336 91.804 31.6195 91.0687 32.3549L90.2325 33.191C89.4972 33.9263 89.2112 35.159 89.5627 36.7246C89.9113 38.2769 90.8695 40.022 92.3956 41.548C93.9217 43.0741 95.6668 44.0324 97.2191 44.3809C98.7846 44.7325 100.017 44.4465 100.753 43.7112L101.589 42.875C102.324 42.1397 102.61 40.907 102.259 39.3414C101.91 37.7892 100.952 36.0441 99.4257 34.518C97.8996 32.9919 96.1545 32.0336 94.6022 31.6851Z" fill="#343A40"/>
<path fill-rule="evenodd" clip-rule="evenodd" d="M89.7235 37.3852C90.0712 37.7329 90.0712 38.2965 89.7235 38.6442C89.6924 38.6752 89.5049 38.863 89.1986 39.1697C86.9991 41.3724 78.6741 49.7093 78.1762 50.1915C77.7251 50.6458 77.5134 51.3495 77.6431 52.2134C77.7733 53.0805 78.2464 54.0471 79.0714 54.8721C79.8964 55.6971 80.863 56.1702 81.7301 56.3004C82.5968 56.4305 83.3023 56.217 83.7565 55.7628C83.7876 55.7317 83.9756 55.5434 84.2827 55.2359C86.5189 52.9966 95.0685 44.4347 95.3214 44.1987C95.6808 43.8632 96.2442 43.8826 96.5796 44.2421C96.9151 44.6015 96.8957 45.1648 96.5362 45.5003C96.5367 45.4999 96.5362 45.5003 96.5348 45.5017C96.5308 45.5056 96.5193 45.5168 96.4965 45.5392C96.4689 45.5662 96.4313 45.6034 96.3839 45.6504C96.2891 45.7443 96.1575 45.8752 95.994 46.038C95.6672 46.3636 95.2145 46.8155 94.6778 47.3518C93.6044 48.4243 92.1959 49.8335 90.7871 51.2433C88.6796 53.3526 86.5711 55.464 85.5858 56.4507C85.2542 56.7828 85.0498 56.9875 85.0155 57.0218C84.07 57.9673 82.7487 58.2537 81.4659 58.0612C80.1835 57.8687 78.8779 57.1966 77.8124 56.1311C76.7469 55.0656 76.0749 53.76 75.8824 52.4777C75.6898 51.1948 75.9762 49.8735 76.9217 48.928L76.9325 48.9172L76.9438 48.9067C76.9433 48.9071 76.9438 48.9067 76.9452 48.9052C76.9492 48.9014 76.9608 48.8902 76.9835 48.8678C77.0111 48.8408 77.0487 48.8036 77.0961 48.7566C77.1909 48.6627 77.3225 48.5318 77.486 48.3689C77.8128 48.0433 78.2655 47.5915 78.8022 47.0552C79.8756 45.9827 81.2841 44.5735 82.6929 43.1637C84.8008 41.054 86.9097 38.9421 87.8948 37.9557C88.226 37.624 88.4302 37.4195 88.4645 37.3852C88.8122 37.0375 89.3758 37.0375 89.7235 37.3852Z" fill="#343A40"/>
<path fill-rule="evenodd" clip-rule="evenodd" d="M62.302 69.6143C62.6898 69.9165 62.7591 70.4759 62.4569 70.8637L53.4044 82.4792C53.2476 82.6805 53.0118 82.8048 52.7571 82.8205C52.5024 82.8363 52.2532 82.7419 52.0728 82.5615L46.5286 77.0173C46.1809 76.6697 46.1809 76.106 46.5286 75.7583C46.8762 75.4107 47.4399 75.4107 47.7875 75.7583L52.6194 80.5901L61.0526 69.7692C61.3548 69.3814 61.9142 69.3121 62.302 69.6143Z" fill="#343A40"/>
<path fill-rule="evenodd" clip-rule="evenodd" d="M34.6103 25H81.3135V36.7968H79.533V26.7805H35.3478L26.7805 35.3478V103.164H79.533V78.6055H81.3135V104.944H25V34.6103L34.6103 25Z" fill="#343A40"/>
<path fill-rule="evenodd" clip-rule="evenodd" d="M37.7242 37.7245V29.5259H39.5047V39.5049H29.5256V37.7245H37.7242Z" fill="#343A40"/>
</svg>
