<svg width="130" height="130" viewBox="0 0 130 130" fill="none" xmlns="http://www.w3.org/2000/svg">
<path d="M86.1697 49.9189V43.1283H79.3791L75.9837 39.7329L72.5884 43.1283H65.7977V49.9189L62.4023 53.3143L65.7977 56.7096V63.5003H72.5884L75.9837 66.8956L79.3791 63.5003H86.1697V56.7096L89.5651 53.3143L86.1697 49.9189Z" fill="#FFDE00"/>
<path fill-rule="evenodd" clip-rule="evenodd" d="M75.9841 38.4083L79.7674 42.1916H87.1068V49.531L90.8901 53.3143L87.1068 57.0976V64.437H79.7674L75.9841 68.2203L72.2008 64.437H64.8614V57.0976L61.0781 53.3143L64.8614 49.531V42.1916H72.2008L75.9841 38.4083ZM75.9841 41.0576L72.9767 44.0649H66.7347V50.3069L63.7274 53.3143L66.7347 56.3217V62.5637H72.9767L75.9841 65.5711L78.9915 62.5637H85.2335V56.3217L88.2409 53.3143L85.2335 50.3069V44.0649H78.9915L75.9841 41.0576Z" fill="#2E3547"/>
<path fill-rule="evenodd" clip-rule="evenodd" d="M99.0492 36.9335C99.0491 36.9336 99.0494 36.9333 99.0492 36.9335L94.5301 41.2175C94.3219 41.4115 94.1556 41.8299 94.3056 42.553C94.4517 43.2575 94.8805 44.0955 95.5929 44.8512L95.9141 45.192C96.6249 45.9461 97.4361 46.4192 98.1303 46.6024C98.8428 46.7905 99.2697 46.6462 99.4739 46.4488L99.4805 46.4424L103.996 42.1618C105.23 40.9959 105.28 38.9209 103.977 37.539L103.968 37.5297L103.649 37.1725C102.353 35.8231 100.286 35.765 99.0492 36.9335ZM97.7627 35.5718C99.8091 33.6382 103.062 33.8416 105.015 35.8905L105.026 35.9016L105.349 36.2637C107.286 38.3286 107.332 41.5859 105.284 43.5226C105.283 43.5229 105.283 43.5231 105.283 43.5234L100.772 47.7991C99.9189 48.621 98.7137 48.6939 97.6522 48.4137C96.5707 48.1282 95.4646 47.4462 94.551 46.477L94.2299 46.1362C94.2298 46.1361 94.2299 46.1362 94.2299 46.1362C93.3179 45.1687 92.6982 44.0277 92.4713 42.9333C92.2485 41.8587 92.3839 40.6597 93.2496 39.8501L97.7627 35.5718Z" fill="#2E3547"/>
<path fill-rule="evenodd" clip-rule="evenodd" d="M99.0492 48.9916C99.0491 48.9917 99.0494 48.9914 99.0492 48.9916L94.5301 53.2756C94.3219 53.4696 94.1556 53.888 94.3056 54.6111C94.4517 55.3156 94.8805 56.1536 95.5929 56.9093L95.9141 57.2501C96.6249 58.0042 97.4361 58.4773 98.1303 58.6605C98.8428 58.8486 99.2697 58.7043 99.4739 58.5069L99.4805 58.5005L103.996 54.2199C105.23 53.054 105.28 50.979 103.977 49.5971L103.968 49.5878L103.649 49.2306C102.353 47.8812 100.286 47.8231 99.0492 48.9916ZM97.7627 47.63C99.8091 45.6963 103.062 45.8997 105.015 47.9486L105.026 47.9597L105.349 48.3218C107.286 50.3867 107.332 53.644 105.284 55.5808C105.283 55.581 105.283 55.5812 105.283 55.5815L100.772 59.8572C99.9189 60.6791 98.7137 60.752 97.6522 60.4718C96.5707 60.1863 95.4646 59.5043 94.551 58.5351L94.2299 58.1943C94.2298 58.1942 94.2299 58.1943 94.2299 58.1943C93.3179 57.2268 92.6982 56.0858 92.4713 54.9914C92.2485 53.9168 92.3839 52.7178 93.2496 51.9082L97.7627 47.63Z" fill="#2E3547"/>
<path fill-rule="evenodd" clip-rule="evenodd" d="M63.4522 104.326C71.1766 104.797 76.5581 102.359 80.2094 99.5233C83.1339 97.2524 84.9938 94.658 85.9428 93.3344C86.1779 93.0064 86.3572 92.7564 86.4828 92.6087L85.0558 91.395C84.8488 91.6384 84.6021 91.9805 84.3027 92.3957C83.3036 93.781 81.7174 95.9805 79.0605 98.0437C75.6751 100.673 70.6163 102.979 63.1709 102.43L62.756 102.399L62.4551 102.686C61.4524 103.644 60.027 105.073 58.8583 106.256C58.2726 106.849 57.7491 107.383 57.3721 107.768C57.1835 107.961 57.0315 108.117 56.9266 108.224L56.7643 108.391L56.7637 108.392L58.1065 109.698L58.2678 109.532C58.3721 109.425 58.5234 109.27 58.7111 109.078C59.0867 108.694 59.608 108.163 60.1912 107.573C61.2467 106.504 62.4974 105.249 63.4522 104.326Z" fill="#2E3547"/>
<path fill-rule="evenodd" clip-rule="evenodd" d="M103.4 72.5585C102.128 71.4631 100.273 71.6097 99.2688 72.7837L99.2642 72.789L95.4665 77.1643C95.3009 77.3546 95.1867 77.7341 95.3773 78.359C95.5641 78.9711 96.0154 79.6803 96.7177 80.2943L96.7218 80.2978L97.0408 80.5801C97.7375 81.1885 98.4957 81.5279 99.1238 81.6209C99.7648 81.7159 100.134 81.5477 100.306 81.3506C100.306 81.3505 100.306 81.3508 100.306 81.3506L104.102 76.9773C105.121 75.8017 104.982 73.9455 103.721 72.8423L103.716 72.8387L103.4 72.5585ZM97.8473 71.5635C99.5631 69.56 102.614 69.4037 104.628 71.1444L104.637 71.1515L104.956 71.4339C106.941 73.1715 107.255 76.1994 105.517 78.2044L101.719 82.5802C100.984 83.4245 99.8702 83.6252 98.8494 83.474C97.8158 83.321 96.7332 82.7993 95.8059 81.9886L95.8018 81.985L95.4827 81.7028C94.5616 80.8969 93.8897 79.9025 93.5856 78.9057C93.2852 77.9212 93.3126 76.7861 94.0532 75.9349C94.0533 75.9347 94.053 75.9351 94.0532 75.9349L97.8473 71.5635Z" fill="#2E3547"/>
<path fill-rule="evenodd" clip-rule="evenodd" d="M52.7722 45.2106C54.1786 45.0326 55.7837 45.5018 56.7425 46.8424L56.7445 46.8451C58.2025 48.8993 59.6826 51.8523 59.3498 55.335C58.8334 60.7155 58.205 64.093 56.741 68.6256C60.5332 73.7094 64.3166 84.3308 60.2084 96.0977L58.4398 95.4803C62.4178 84.0863 58.5157 73.8695 54.9632 69.3862L54.6497 68.9905L54.8078 68.5111C56.3308 63.8933 56.9614 60.6119 57.485 55.1564C57.7564 52.3153 56.5551 49.8154 55.218 47.931C54.7411 47.2652 53.8816 46.9584 53.0075 47.0691C52.129 47.1803 51.4592 47.6785 51.2462 48.3654L51.2455 48.3676C50.1333 51.9232 49.3457 54.5584 48.7026 56.7099C47.5657 60.5137 46.8808 62.8052 45.6535 65.9969C44.6489 68.6176 44.4215 71.8155 44.327 74.7499C44.3118 75.2207 44.3 75.6883 44.2884 76.145C44.2647 77.0804 44.2422 77.9702 44.1947 78.7479C44.1259 79.874 43.999 80.9634 43.6435 81.7199C43.5895 81.8353 43.4739 82.0327 43.3588 82.2265C43.2253 82.4512 43.048 82.7439 42.8431 83.0789C42.4331 83.7495 41.9068 84.5993 41.3881 85.4331C40.8692 86.2673 40.357 87.0871 39.9745 87.6982C39.7832 88.0038 39.6244 88.2573 39.5133 88.4344L39.3391 88.7121C39.3391 88.7122 39.3389 88.7124 38.5457 88.2144L37.7524 87.7163L37.9262 87.4393C38.037 87.2625 38.1956 87.0095 38.3866 86.7044C38.7685 86.0941 39.2798 85.2759 39.7975 84.4437C40.3154 83.611 40.8387 82.766 41.245 82.1016C41.4483 81.7691 41.6208 81.4842 41.7482 81.2698C41.8909 81.0296 41.9441 80.9317 41.9439 80.9321L41.948 80.9231C42.1309 80.5339 42.2543 79.7889 42.3249 78.6337C42.3703 77.8888 42.3914 77.0566 42.4144 76.1439C42.4261 75.6797 42.4384 75.1946 42.4546 74.6896C42.549 71.7587 42.7749 68.2722 43.9046 65.3257C45.1071 62.1986 45.7647 59.9978 46.882 56.2582C47.5246 54.1073 48.3194 51.4471 49.4576 47.8083C49.9441 46.2432 51.3705 45.3881 52.7722 45.2106Z" fill="#2E3547"/>
<path fill-rule="evenodd" clip-rule="evenodd" d="M99.3025 60.7268C99.3024 60.727 99.3027 60.7266 99.3025 60.7268L95.4523 65.1732C95.2818 65.3741 95.1686 65.7715 95.3637 66.4099C95.5551 67.0361 96.0154 67.7584 96.7339 68.3804L96.7414 68.387L97.0586 68.6676C97.776 69.2876 98.5539 69.6362 99.1956 69.7314C99.8508 69.8287 100.22 69.6552 100.39 69.4519L100.395 69.4465L104.25 64.9949C104.25 64.9943 104.251 64.9937 104.251 64.9931C105.279 63.791 105.145 61.8794 103.857 60.764L103.849 60.7575L103.535 60.479C102.246 59.3832 100.346 59.5253 99.3025 60.7268ZM97.8881 59.4985C99.6384 57.4831 102.722 57.3205 104.757 59.0597L104.763 59.0649L105.087 59.3512C107.119 61.1141 107.399 64.1977 105.672 66.2136L105.669 66.2174L101.82 70.6627C101.084 71.5338 99.9538 71.7378 98.9206 71.5844C97.8728 71.4289 96.7728 70.898 95.8289 70.0807L95.8213 70.0742L95.5038 69.7933C94.5621 68.9768 93.881 67.9677 93.5722 66.9574C93.2673 65.9596 93.2946 64.8141 94.03 63.9541L94.0338 63.9496L97.8881 59.4985Z" fill="#2E3547"/>
<path fill-rule="evenodd" clip-rule="evenodd" d="M78.2137 87.2574H72.5469V85.3842H78.2137V87.2574Z" fill="#2E3547"/>
<path fill-rule="evenodd" clip-rule="evenodd" d="M52.7207 27.6176C52.7207 23.959 55.6691 21 59.3242 21H91.4363C95.0915 21 98.0398 23.959 98.0398 27.6176V37.0859H96.1665V27.6176C96.1665 24.9892 94.0525 22.8733 91.4363 22.8733H59.3242C56.708 22.8733 54.594 24.9892 54.594 27.6176V46.554C54.594 46.5541 54.594 46.5541 53.6573 46.5541C52.7207 46.5541 52.7207 46.5541 52.7207 46.554V27.6176Z" fill="#2E3547"/>
<path fill-rule="evenodd" clip-rule="evenodd" d="M98.0398 82.5335V86.3208C98.0398 89.9794 95.0915 92.9384 91.4363 92.9384H59.3242V91.0651H91.4363C94.0525 91.0651 96.1665 88.9492 96.1665 86.3208V82.5335H98.0398Z" fill="#2E3547"/>
<path fill-rule="evenodd" clip-rule="evenodd" d="M34.7677 83.1008L59.9872 108.383L58.6609 109.706L34.7677 85.7534L26.6459 93.8954L41.0977 108.383L39.7714 109.706L24 93.8954L34.7677 83.1008Z" fill="#2E3547"/>
<path fill-rule="evenodd" clip-rule="evenodd" d="M35.9939 96.4504L34.105 94.5567L35.4312 93.2338L37.3202 95.1274L35.9939 96.4504Z" fill="#2E3547"/>
<path fill-rule="evenodd" clip-rule="evenodd" d="M95.2139 81.5765H61.2129V79.7032H95.2139V81.5765Z" fill="#2E3547"/>
</svg>
