<svg width="110" height="17" viewBox="0 0 110 17" fill="none" xmlns="http://www.w3.org/2000/svg">
<path d="M73.5913 15.1379H73.4246C73.0231 15.1379 72.705 15.0108 72.4853 14.7716C71.9929 14.2334 72.0838 13.2765 72.0838 13.2541V6.53366C72.0838 4.26112 71.5157 2.58662 70.3946 1.54753C69.334 0.568239 67.6448 0.0673828 65.3798 0.0673828C63.3497 0.0673828 61.1757 0.471058 58.9334 1.26346L58.8198 1.30084V6.55609H59.6834L62.6301 1.9811C62.6528 1.94373 62.6831 1.89887 62.7058 1.8615C62.9255 1.51015 63.13 1.18123 63.8951 1.04667L63.9481 1.03919C64.0466 1.01677 64.2057 0.986865 64.4557 0.986865C65.8949 0.986865 66.5994 2.10819 66.5994 4.41063L66.6222 4.57509L66.5464 7.61013C65.7434 7.13918 64.6678 6.89996 63.3573 6.89996C61.9104 6.89996 60.6303 7.34101 59.5394 8.20069C58.441 9.07532 57.8805 10.2789 57.8805 11.774C57.8805 13.1868 58.3123 14.3156 59.1683 15.123C60.0167 15.9303 61.0923 16.3415 62.3498 16.3415C63.3952 16.3415 64.3269 16.0499 65.1223 15.4818C65.7434 15.0333 66.2283 14.4726 66.5616 13.7923C66.7055 14.495 67.0539 15.0706 67.5842 15.5042C68.2887 16.0724 69.6825 16.3191 70.2128 16.3415C70.44 16.349 70.6597 16.3564 70.8642 16.3564C72.5232 16.3564 73.4473 16.0798 73.4928 16.0724L73.614 16.035L73.5913 15.1379ZM64.842 13.7325C64.3421 13.7325 63.9481 13.5232 63.63 13.0971C63.3043 12.6635 63.1376 12.0356 63.1376 11.2432C63.1376 10.3462 63.3573 9.60608 63.7815 9.03047C64.2057 8.46981 64.7738 8.19322 65.5313 8.19322C65.8722 8.19322 66.2055 8.23807 66.5313 8.33525L66.4707 12.7533C66.0237 13.4111 65.4859 13.7325 64.842 13.7325Z" fill="white"/>
<path d="M96.3571 0.28418V7.13918H97.2206L100.508 1.3756C100.607 1.21114 100.773 1.21114 100.796 1.21114H103.879L95.8798 15.2276L95.8571 15.265L95.8495 16.0798H109.28L109.273 9.06786H108.424L105.038 14.981C104.978 15.0856 104.864 15.1454 104.743 15.1454H101.66L109.977 0.598149L110 0.560772V0.28418H96.3571Z" fill="white"/>
<path d="M39.8297 2.08566C38.3071 0.702694 36.2163 0 33.6181 0C31.035 0 28.9518 0.71017 27.4292 2.10061C25.9066 3.49852 25.134 5.52437 25.134 8.11836C25.134 10.7572 25.8991 12.798 27.4141 14.181C28.9215 15.5639 31.0123 16.2666 33.6181 16.2666C36.2012 16.2666 38.2843 15.5565 39.8221 14.166C41.3598 12.7681 42.1401 10.7423 42.1401 8.14826C42.1325 5.5169 41.3598 3.47609 39.8297 2.08566ZM31.8379 2.36225C32.2318 1.39044 32.8151 0.919483 33.6105 0.919483C34.4059 0.919483 34.9892 1.39791 35.3831 2.39215C35.7921 3.41629 36.0042 5.35991 36.0042 8.14826C36.0042 10.9665 35.7921 12.9101 35.3831 13.9193C34.9892 14.8986 34.4059 15.377 33.6105 15.377C32.8151 15.377 32.2318 14.8911 31.8379 13.8894C31.4289 12.8503 31.2168 10.9067 31.2168 8.11089C31.2244 5.30758 31.4289 3.37144 31.8379 2.36225Z" fill="white"/>
<path d="M56.7151 1.32318C56.147 0.45603 54.5562 0.194389 53.9123 0.20934C51.7156 0.261668 50.9126 2.16791 50.5187 3.24438L50.5338 0.284095L43.1557 0.299046V1.12135L44.9889 2.42208V13.6502C44.9889 13.8371 44.9889 13.867 44.9889 13.8969C44.9889 13.9044 44.9889 13.9193 44.9889 13.9343L43.1557 15.2201V16.0723H45.1555L45.3222 16.0573H50.2005V16.0723L52.7761 16.0648V15.1977L50.5338 13.9193L50.5111 4.90393C50.8975 4.21619 51.5186 3.38641 52.2913 3.28176C52.7761 3.21448 53.2836 3.43874 53.7987 3.94707C54.3971 4.53764 55.8516 6.47378 55.8667 6.49621L55.9197 6.56349H56.7454V1.37551L56.7151 1.32318Z" fill="white"/>
<path d="M92.3784 13.9343C92.3784 13.1718 92.3784 7.49796 92.3784 6.79527C92.3784 4.62738 91.939 2.9454 91.0603 1.79418C90.1816 0.635484 88.9014 0.0449219 87.2728 0.0449219C84.9699 0.0449219 83.3792 0.97188 82.4399 2.87065L82.4323 0.284137H76.8949H75.0617V1.13634L76.8949 2.42212C76.8949 4.47788 76.8949 7.69233 76.8949 9.83031C76.8949 10.9815 76.8949 12.6411 76.8949 13.9343L75.0617 15.2201V16.0723H76.8949H77.2282H82.1066H84.273V15.2201L82.4323 13.9343L82.4399 4.23118C83.0383 3.38646 83.7428 2.97531 84.5836 2.97531C85.4472 2.97531 86.0153 3.32665 86.3259 4.05925C86.6516 4.82922 86.8183 5.98792 86.8183 7.52039C86.8183 7.66243 86.8183 8.11095 86.8259 8.70899L86.8334 9.83779C86.841 11.5048 86.8486 13.5082 86.8562 13.9418L85.023 15.2276V16.0798H86.7728H92.0451H92.3936H94.2116V15.2276L92.3784 13.9343Z" fill="white"/>
<path d="M19.9528 0.28418V1.08405L21.8087 4.36579C21.9905 4.70218 22.0208 4.82927 22.0284 4.86664C22.0284 4.90402 22.0284 5.0311 21.892 5.41983L19.6498 11.9758L16.6425 3.02768C16.5743 2.80341 16.5971 2.5941 16.7183 2.39226L17.8242 1.10648V0.291655H9.62038V1.09901L10.6203 2.47449C10.8248 2.88564 11.0445 3.42388 11.2718 4.09667L12.0141 6.28698L10.0143 12.0132L7.0297 3.02768C6.96152 2.80341 6.98425 2.5941 7.10545 2.39226L8.21141 1.10648V0.28418H0V1.09153L0.999914 2.46702C1.14384 2.75856 1.36352 3.30427 1.65137 4.08919L5.76465 16.0574H9.57493L12.4913 7.72227L15.4078 16.0574H19.1877L22.8314 5.61419C22.9526 5.23294 23.1798 4.76946 23.5055 4.25365L25.6872 1.09153V0.28418H19.9528Z" fill="white"/>
</svg>
