<svg width="126" height="48" viewBox="0 0 126 48" fill="none" xmlns="http://www.w3.org/2000/svg">
<g clip-path="url(#clip0)">
<path d="M34.8974 34.7055C34.4876 34.7055 34.1462 34.8455 33.8047 35.1254C31.4827 37.4344 28.5462 38.9038 25.2681 39.3936C17.0047 40.5131 9.28762 34.5656 8.19494 26.0991C7.6486 21.9709 8.74128 17.9125 11.1315 14.6239C13.5901 11.3353 17.1413 9.16619 21.1705 8.60642C24.7901 8.11663 28.4779 8.95627 31.4827 10.9854C31.8925 11.2653 32.0974 11.6851 32.0974 12.105C32.0974 12.8746 31.551 13.5044 30.7998 13.5044C30.5949 13.5044 30.3901 13.4344 30.1852 13.3644C27.9315 11.8951 24.9266 11.0554 22.2632 11.2653C22.1266 11.2653 21.9901 11.2653 21.9218 11.2653H21.7852C21.6486 11.2653 21.5803 11.2653 21.4437 11.3353C15.5705 12.035 13.3169 15.8834 13.7266 19.3819C14.3413 24.8397 18.7803 25.1895 22.7413 25.5394C26.0876 25.8192 28.9559 26.0292 29.2974 29.1079C29.5705 31.4169 27.7266 33.1662 24.5852 33.586H24.5169C24.3803 33.586 24.1754 33.656 23.9705 33.656C20.351 33.8659 17.0047 32.0467 15.1608 28.828C14.9559 28.4781 14.6145 28.1983 14.273 28.1283C13.8632 27.9883 13.4535 28.0583 13.112 28.2682C12.7705 28.4781 12.4974 28.828 12.4291 29.1778C12.2925 29.5977 12.3608 30.0175 12.5657 30.3674C14.8193 34.4257 19.0535 36.8746 23.6291 36.7347C23.7657 36.7347 23.9705 36.7347 24.1071 36.7347C24.1754 36.7347 24.2437 36.7347 24.2437 36.7347L24.8584 36.6647C27.5218 36.3149 29.5705 35.4053 30.8681 34.0058C32.1657 32.6064 32.7803 30.7172 32.5754 28.6881C31.9608 23.1604 27.4535 22.7405 23.4242 22.3907C20.1462 22.1108 17.2779 21.8309 16.9364 18.9621C16.7315 17.1429 17.8925 14.9038 21.7852 14.484C21.8535 14.484 21.9218 14.484 21.9901 14.484L22.5364 14.414C24.6535 14.2741 26.9071 14.9038 28.5462 16.0233C28.5462 16.0233 28.6145 16.0233 28.6145 16.0933C29.2974 16.5131 30.0486 16.6531 30.8681 16.6531C32.0291 16.6531 33.1218 16.1633 33.873 15.2537C34.6925 14.414 35.1023 13.2945 35.034 12.105C35.034 10.6356 34.2827 9.23616 33.0535 8.46648C30.1169 6.5073 26.634 5.45773 23.151 5.45773C22.3315 5.45773 21.512 5.5277 20.6925 5.59767C15.912 6.22741 11.6096 8.81633 8.67299 12.7347C5.7364 16.6531 4.43884 21.551 5.12177 26.519C6.35104 35.7551 13.9998 42.6123 23.0827 42.6123C23.2193 42.6123 23.3559 42.6123 23.4925 42.6123C24.1754 42.6123 24.8584 42.5423 25.5413 42.4723C29.434 41.9125 32.9852 40.1633 35.7852 37.3644C36.0584 37.0846 36.2632 36.6647 36.2632 36.3149C36.2632 35.8951 36.1266 35.5452 35.8535 35.1953C35.6486 34.9155 35.3071 34.7055 34.8974 34.7055Z" fill="#383A98"/>
<path d="M37.7646 5.10575C37.6963 4.96581 37.628 4.89584 37.5598 4.82587C32.5744 0.977473 26.4963 -0.631857 20.2817 0.207794C7.51097 1.95706 -1.50366 14.062 0.203653 27.2165C1.09146 33.9337 4.77926 40.0212 10.311 43.8696C10.6524 44.0795 10.9256 44.2894 11.1988 44.4993L11.2671 44.5693C11.5402 44.7792 11.8817 44.9192 12.1549 45.0591L12.2915 45.1291C12.5646 45.269 12.9061 45.4789 13.1793 45.6189L13.2476 45.6888C13.589 45.8288 13.9305 46.0387 14.2037 46.1786H14.2719C17.1402 47.4381 20.2134 48.0679 23.3549 48.0679C23.5598 48.0679 23.6963 48.0679 23.9012 48.0679C24.789 48.0679 25.6768 47.9979 26.4963 47.8579C31.4817 47.1582 36.0573 44.9192 39.6085 41.3507C39.6768 41.2807 39.7451 41.2107 39.8134 41.1407C44.2524 36.5926 46.711 30.5751 46.711 24.1378C46.7793 16.581 43.5012 9.72383 37.7646 5.10575ZM43.911 23.9979C43.911 29.5955 41.7939 34.8434 37.9012 38.8317C37.8329 38.9017 37.7646 38.9716 37.6963 39.0416C34.5549 42.1903 30.5939 44.1495 26.2232 44.7093C25.3354 44.8492 24.3793 44.9192 23.4232 44.9192C18.9158 44.9192 14.6817 43.4498 11.0622 40.6509C6.69146 37.2224 3.89146 32.3244 3.14024 26.7967C1.6378 15.3215 9.49146 4.7559 20.6915 3.21654C21.6476 3.0766 22.5354 3.00663 23.4915 3.00663C27.9305 3.00663 32.1646 4.47601 35.7841 7.27485C35.8524 7.34482 35.9207 7.34482 35.989 7.41479C40.9744 11.4731 43.911 17.4906 43.911 23.9979Z" fill="#383A98"/>
<path d="M37.2198 13.5743C37.0832 13.6443 36.8783 13.7143 36.7417 13.7843C36.6051 13.9242 36.4686 13.9942 36.4003 14.2041C36.332 14.344 36.2637 14.484 36.1954 14.6939C36.1954 14.8338 36.1271 15.0437 36.1954 15.1837C36.1954 15.3236 36.2637 15.4636 36.4003 15.6735C36.5369 15.9534 36.81 16.1633 37.1515 16.2332C37.2881 16.2332 37.3564 16.3032 37.493 16.3032C37.6978 16.3032 37.9027 16.2332 38.1076 16.1633C38.4491 16.0233 38.6539 15.6735 38.7222 15.3236C38.7905 14.9738 38.7222 14.6239 38.5173 14.2741C38.4491 14.1341 38.3125 13.9942 38.1076 13.8542C37.971 13.7843 37.8344 13.7143 37.6295 13.6443C37.5612 13.5044 37.3564 13.5044 37.2198 13.5743Z" fill="#383A98"/>
<path d="M38.1756 18.5423C38.1073 18.7522 37.9707 19.1021 38.1073 19.5219C38.2439 19.8717 38.4487 20.0816 38.7219 20.2916C38.9268 20.4315 39.2 20.5015 39.4048 20.5015C39.4731 20.5015 39.6097 20.5015 39.678 20.5015C40.0195 20.4315 40.2926 20.2216 40.4975 19.8717C40.7024 19.5219 40.7024 19.172 40.6341 18.8222C40.4975 18.4023 40.2926 18.1225 39.9512 17.9825C39.6097 17.8426 39.2682 17.7726 38.9268 17.9126C38.5853 17.9825 38.3804 18.1924 38.1756 18.5423Z" fill="#383A98"/>
<path d="M39.9509 22.3907C39.6095 22.3907 39.3363 22.6006 39.0631 22.8105C38.9266 23.0204 38.7217 23.3003 38.7217 23.7201C38.7217 24.07 38.8583 24.3499 39.0631 24.6297C39.3363 24.9096 39.6095 25.0496 39.9509 25.0496H40.0192C40.3607 25.0496 40.6339 24.9096 40.907 24.6997C41.1802 24.4198 41.3168 24.07 41.3168 23.7201C41.3168 23.3703 41.1119 23.0204 40.907 22.7405C40.7022 22.4606 40.3607 22.3207 39.9509 22.3907Z" fill="#383A98"/>
<path d="M39.8144 27.0088C39.4729 26.9388 39.1315 27.0088 38.8583 27.2187C38.5851 27.4286 38.3803 27.6385 38.312 27.9883C38.2437 28.1283 38.2437 28.3382 38.312 28.4781C38.312 28.6181 38.3803 28.828 38.4485 28.9679C38.5851 29.2478 38.8583 29.5277 39.1998 29.5977C39.3364 29.6676 39.4729 29.6677 39.6095 29.6677C39.8144 29.6677 40.0193 29.5977 40.2242 29.5277C40.3607 29.4577 40.4973 29.3178 40.6339 29.1779C40.7705 29.0379 40.8388 28.898 40.8388 28.6881C40.9071 28.3382 40.9071 27.9184 40.7022 27.6385C40.429 27.2886 40.1559 27.0787 39.8144 27.0088Z" fill="#383A98"/>
<path d="M38.38 31.4169C38.1069 31.277 37.6971 31.207 37.4239 31.3469C37.0825 31.4169 36.8093 31.6268 36.6727 31.9067C36.6044 32.0466 36.5361 32.1866 36.5361 32.3965C36.5361 32.5364 36.5361 32.7464 36.5361 32.8863C36.6044 33.2362 36.8093 33.516 37.0825 33.726C37.2874 33.8659 37.5605 33.9359 37.7654 33.9359C37.8337 33.9359 37.9703 33.9359 38.0386 33.9359C38.1752 33.8659 38.38 33.7959 38.5166 33.726C38.6532 33.586 38.7898 33.4461 38.9264 33.3061C39.1312 32.9563 39.1313 32.6064 39.063 32.2566C38.9264 31.9067 38.7215 31.6268 38.38 31.4169Z" fill="#383A98"/>
<path d="M55.4531 21.2711V10.2857C55.4531 9.79591 55.658 9.586 56.1361 9.586H61.8043C62.1458 9.586 62.2824 9.86588 62.2824 10.4256V10.9854C62.2824 11.5452 62.1458 11.8251 61.8043 11.8251H58.0482V14.344H61.6678C62.0092 14.344 62.1458 14.6239 62.1458 15.1837V15.7434C62.1458 16.3032 62.0092 16.5831 61.6678 16.5831H58.0482V21.1312C58.0482 21.481 57.7068 21.691 57.0239 21.691H56.4775C55.7946 21.8309 55.4531 21.621 55.4531 21.2711Z" fill="#383A98"/>
<path d="M65.0142 20.2916C64.0581 19.242 63.5801 17.7026 63.5801 15.6735C63.5801 13.6443 64.0581 12.105 65.0142 11.0554C65.9703 10.0058 67.2679 9.44608 69.0435 9.44608C70.8191 9.44608 72.1167 10.0058 73.0728 11.0554C74.0288 12.105 74.4386 13.6443 74.4386 15.6735C74.4386 17.7026 73.9606 19.242 73.0728 20.2916C72.1167 21.3411 70.8191 21.9009 69.0435 21.9009C67.2679 21.9009 65.902 21.3411 65.0142 20.2916ZM66.9264 18.6123C67.4045 19.312 68.0874 19.5918 68.9752 19.5918C69.863 19.5918 70.5459 19.242 71.024 18.6123C71.502 17.9125 71.7069 16.933 71.7069 15.6735C71.7069 14.414 71.502 13.4344 71.024 12.7347C70.5459 12.105 69.863 11.7551 68.9752 11.7551C68.0874 11.7551 67.4045 12.105 66.9264 12.7347C66.4484 13.4344 66.2435 14.344 66.2435 15.6735C66.2435 17.0029 66.5167 17.9825 66.9264 18.6123Z" fill="#383A98"/>
<path d="M76.2148 21.2711V10.1458C76.2148 9.79591 76.5563 9.586 77.2392 9.586H78.127C78.6734 9.586 79.0148 9.72594 79.2197 10.0758L82.2246 15.5335L85.2295 10.0758C85.3661 9.79591 85.7758 9.586 86.3222 9.586H87.21C87.8929 9.586 88.2344 9.79591 88.2344 10.1458V21.2711C88.2344 21.621 87.8929 21.8309 87.21 21.8309H86.7319C86.049 21.8309 85.7075 21.621 85.7075 21.2711V14.0641H85.6392L83.1807 18.5423C83.0441 18.7522 82.7709 18.8921 82.4978 18.8921H82.0197C81.7465 18.8921 81.4734 18.7522 81.3368 18.5423L78.8783 14.0641H78.81V21.2711C78.81 21.621 78.4685 21.8309 77.7856 21.8309H77.3075C76.5563 21.8309 76.2148 21.621 76.2148 21.2711Z" fill="#383A98"/>
<path d="M89.668 20.3615C89.668 20.0817 89.8045 19.8018 90.0777 19.3819C90.3509 19.0321 90.5558 18.8222 90.7606 18.8222C90.8289 18.8222 90.9655 18.8921 91.1704 19.0321C91.8533 19.4519 92.5363 19.6618 93.2192 19.6618C94.3119 19.6618 94.7899 19.242 94.7899 18.4023C94.7899 18.0525 94.6533 17.7026 94.3119 17.4927C93.9704 17.2128 93.5607 17.0029 93.0826 16.793C92.6046 16.5831 92.1265 16.3732 91.6485 16.1633C91.1704 15.8834 90.7606 15.5335 90.4192 15.0437C90.0777 14.554 89.9411 13.8542 89.9411 13.0846C89.9411 12.3149 90.146 11.6152 90.5558 11.0554C91.307 10.0758 92.3997 9.51605 93.9704 9.51605C94.8582 9.51605 95.5411 9.65599 96.1558 9.86591C96.7704 10.1458 97.0436 10.4257 97.0436 10.7056C97.0436 10.9854 96.907 11.2653 96.7021 11.6851C96.4972 12.035 96.2924 12.2449 96.0875 12.2449C96.0192 12.2449 95.9509 12.1749 95.8143 12.105C95.3363 11.8951 94.8582 11.8251 94.2436 11.8251C93.6289 11.8251 93.2192 11.8951 93.0143 12.105C92.8094 12.3149 92.6728 12.5948 92.6728 12.8747C92.6728 13.1545 92.8094 13.4344 93.1509 13.7143C93.4924 13.9242 93.9021 14.2041 94.3802 14.344C94.8582 14.554 95.3363 14.7639 95.8143 14.9738C96.2924 15.2537 96.7021 15.6035 97.0436 16.0933C97.385 16.5831 97.5216 17.2128 97.5216 17.9825C97.5216 18.6822 97.385 19.312 97.1802 19.8717C96.9753 20.3615 96.6338 20.7814 96.2924 21.0612C95.5411 21.621 94.6533 21.9009 93.5607 21.9009C92.468 21.9009 91.5802 21.761 90.8289 21.4111C90.0094 21.0612 89.668 20.7114 89.668 20.3615Z" fill="#383A98"/>
<path d="M54.7021 38.1341C54.7021 37.8542 54.8387 37.5743 55.1119 37.1545C55.3851 36.8047 55.59 36.5948 55.7948 36.5948C55.8631 36.5948 55.9997 36.6647 56.2046 36.8047C56.8875 37.2245 57.5704 37.4344 58.2534 37.4344C59.3461 37.4344 59.8241 37.0146 59.8241 36.1749C59.8241 35.8251 59.6875 35.4752 59.3461 35.2653C59.0046 34.9854 58.5948 34.7755 58.1168 34.5656C57.6387 34.3557 57.1607 34.1458 56.6826 33.9359C56.2046 33.656 55.7948 33.3061 55.4534 32.8163C55.1119 32.3265 54.9753 31.6268 54.9753 30.8571C54.9753 30.0875 55.1802 29.3878 55.59 28.828C56.3412 27.8484 57.4339 27.2886 59.0046 27.2886C59.8924 27.2886 60.5753 27.4286 61.19 27.6385C61.8046 27.9184 62.0778 28.1983 62.0778 28.4781C62.0778 28.758 61.9412 29.0379 61.7363 29.4577C61.5314 29.8076 61.3265 30.0175 61.1217 30.0175C61.0534 30.0175 60.9851 29.9475 60.8485 29.8776C60.3704 29.6676 59.8924 29.5977 59.2778 29.5977C58.6631 29.5977 58.2534 29.6676 58.0485 29.8776C57.8436 30.0875 57.707 30.3674 57.707 30.6472C57.707 30.9271 57.8436 31.207 58.1851 31.4869C58.5265 31.6968 58.9363 31.9767 59.4144 32.1166C59.8924 32.3265 60.3704 32.5364 60.8485 32.7464C61.3265 33.0262 61.7363 33.3761 62.0778 33.8659C62.4192 34.3557 62.5558 34.9854 62.5558 35.7551C62.5558 36.4548 62.4192 37.0846 62.2144 37.6443C62.0095 38.1341 61.668 38.5539 61.3265 38.8338C60.5753 39.3936 59.6875 39.6735 58.5948 39.6735C57.5022 39.6735 56.6143 39.5335 55.8631 39.1837C55.0436 38.8338 54.7021 38.484 54.7021 38.1341Z" fill="#383A98"/>
<path d="M63.9219 38.8338V28.0583C63.9219 27.5685 64.1268 27.3586 64.6048 27.3586H70.8194C71.1609 27.3586 71.2975 27.6385 71.2975 28.1983V28.758C71.2975 29.3178 71.1609 29.5977 70.8194 29.5977H66.5853V32.1866H70.4097C70.7511 32.1866 70.8877 32.4665 70.8877 33.0262V33.586C70.8877 34.1458 70.7511 34.4257 70.4097 34.4257H66.5853V37.2245H70.8877C71.2292 37.2245 71.3658 37.5044 71.3658 38.0641V38.6239C71.3658 39.1837 71.2292 39.4636 70.8877 39.4636H64.6731C64.195 39.5335 63.9219 39.2537 63.9219 38.8338Z" fill="#383A98"/>
<path d="M72.7998 33.3761C72.7998 29.2478 74.712 27.2187 78.4681 27.2187C79.2876 27.2187 80.1071 27.3586 80.9266 27.5685C81.7461 27.7785 82.0876 28.0583 82.0876 28.4082C82.0876 28.6881 81.951 28.968 81.6778 29.3878C81.4047 29.8076 81.1998 30.0175 80.9949 30.0175C80.9949 30.0175 80.8583 29.9476 80.6535 29.8776C80.0388 29.5977 79.2876 29.4578 78.4681 29.4578C76.4876 29.4578 75.5315 30.7872 75.5315 33.3761C75.5315 35.965 76.4876 37.2945 78.3998 37.2945C78.8779 37.2945 79.2876 37.2245 79.6974 37.1545V34.9854H78.1949C77.8535 34.9854 77.7169 34.7056 77.7169 34.1458V33.586C77.7169 33.0263 77.8535 32.7464 78.1949 32.7464H81.6096C82.0876 32.7464 82.2925 32.9563 82.2925 33.4461V38.2741C82.2925 38.554 82.1559 38.7639 81.8827 38.9738C81.6096 39.1837 81.1998 39.3236 80.79 39.3936C79.9705 39.5336 79.151 39.6035 78.3998 39.6035C76.4876 39.6035 75.1218 39.1137 74.1657 38.0642C73.2096 37.0846 72.7998 35.5452 72.7998 33.3761Z" fill="#383A98"/>
<path d="M84.3408 35.4752V27.9184C84.3408 27.5685 84.6823 27.3586 85.3652 27.3586H85.9116C86.5945 27.3586 86.9359 27.5685 86.9359 27.9184V35.3353C86.9359 35.965 87.1408 36.4548 87.5506 36.8746C87.9603 37.2945 88.5067 37.4344 89.1896 37.4344C89.8725 37.4344 90.4189 37.2245 90.8286 36.8746C91.2384 36.4548 91.5116 35.965 91.5116 35.3353V27.9184C91.5116 27.5685 91.853 27.3586 92.5359 27.3586H93.0823C93.7652 27.3586 94.1067 27.5685 94.1067 27.9184V35.4752C94.1067 36.8047 93.6969 37.8542 92.8091 38.5539C91.9213 39.2537 90.7603 39.6735 89.1896 39.6735C87.6189 39.6735 86.4579 39.3236 85.5701 38.5539C84.7506 37.7843 84.3408 36.8047 84.3408 35.4752Z" fill="#383A98"/>
<path d="M96.292 38.9738V28.0583C96.292 27.5685 96.4969 27.3586 96.9749 27.3586H100.253C103.053 27.3586 104.487 28.4781 104.487 30.6472C104.487 31.277 104.282 31.8367 103.941 32.3265C103.599 32.8163 103.121 33.1662 102.507 33.3761V33.4461C102.712 33.516 102.916 33.726 103.19 34.0058C103.394 34.2857 103.599 34.6356 103.736 34.9854L105.238 38.8338C105.307 38.9738 105.307 39.1137 105.307 39.1837C105.307 39.3936 104.965 39.5335 104.282 39.5335H103.599C103.053 39.5335 102.712 39.3936 102.643 39.1837L101.277 35.8251C101.072 35.4752 100.868 35.1953 100.663 34.9854C100.458 34.8455 100.048 34.7755 99.57 34.7755H98.8871V38.9738C98.8871 39.3236 98.5457 39.5335 97.8627 39.5335H97.3164C96.6335 39.5335 96.292 39.3236 96.292 38.9738ZM98.8871 32.4665H100.526C100.868 32.4665 101.209 32.3265 101.414 32.0467C101.687 31.7668 101.824 31.4169 101.824 30.9971C101.824 30.5773 101.687 30.2974 101.414 30.0175C101.141 29.8076 100.799 29.6677 100.39 29.6677H98.8871V32.4665V32.4665Z" fill="#383A98"/>
<path d="M107.561 38.0642C106.605 37.0146 106.127 35.4752 106.127 33.4461C106.127 31.4169 106.605 29.8776 107.561 28.828C108.517 27.7785 109.815 27.2187 111.59 27.2187C113.366 27.2187 114.664 27.7785 115.62 28.828C116.576 29.8776 116.985 31.4169 116.985 33.4461C116.985 35.4752 116.507 37.0146 115.62 38.0642C114.664 39.1137 113.366 39.6735 111.59 39.6735C109.883 39.6735 108.517 39.1137 107.561 38.0642ZM109.542 36.3849C110.02 37.0846 110.703 37.3645 111.59 37.3645C112.478 37.3645 113.161 37.0146 113.639 36.3849C114.117 35.6852 114.322 34.7056 114.322 33.4461C114.322 32.1866 114.117 31.207 113.639 30.5073C113.161 29.8776 112.478 29.5277 111.59 29.5277C110.703 29.5277 110.02 29.8776 109.542 30.5073C109.064 31.207 108.859 32.1166 108.859 33.4461C108.859 34.7755 109.064 35.6852 109.542 36.3849Z" fill="#383A98"/>
<path d="M118.146 38.1341C118.146 37.8542 118.283 37.5743 118.556 37.1545C118.829 36.8047 119.034 36.5948 119.239 36.5948C119.307 36.5948 119.444 36.6647 119.649 36.8047C120.332 37.2245 121.015 37.4344 121.698 37.4344C122.79 37.4344 123.268 37.0146 123.268 36.1749C123.268 35.8251 123.132 35.4752 122.79 35.2653C122.449 34.9854 122.039 34.7755 121.561 34.5656C121.083 34.3557 120.605 34.1458 120.127 33.9359C119.649 33.656 119.239 33.3061 118.898 32.8163C118.556 32.3265 118.42 31.6268 118.42 30.8571C118.42 30.0875 118.625 29.3878 119.034 28.828C119.786 27.8484 120.878 27.2886 122.449 27.2886C123.337 27.2886 124.02 27.4286 124.634 27.6385C125.249 27.9184 125.522 28.1983 125.522 28.4781C125.522 28.758 125.386 29.0379 125.181 29.4577C124.976 29.8076 124.771 30.0175 124.566 30.0175C124.498 30.0175 124.429 29.9475 124.293 29.8776C123.815 29.6676 123.337 29.5977 122.722 29.5977C122.107 29.5977 121.698 29.6676 121.493 29.8776C121.288 30.0875 121.151 30.3674 121.151 30.6472C121.151 30.9271 121.288 31.207 121.629 31.4869C121.971 31.6968 122.381 31.9767 122.859 32.1166C123.337 32.3265 123.815 32.5364 124.293 32.7464C124.771 33.0262 125.181 33.3761 125.522 33.8659C125.864 34.3557 126 34.9854 126 35.7551C126 36.4548 125.864 37.0846 125.659 37.6443C125.454 38.1341 125.112 38.5539 124.771 38.8338C124.02 39.3936 123.132 39.6735 122.039 39.6735C120.946 39.6735 120.059 39.5335 119.307 39.1837C118.556 38.8338 118.146 38.484 118.146 38.1341Z" fill="#383A98"/>
</g>
<defs>
<clipPath id="clip0">
<rect width="126" height="48" fill="white"/>
</clipPath>
</defs>
</svg>
